{
  "log": {
    "disabled": false,
    "level": "info",
    "timestamp": true
  },
    "dns": {
        "servers": [
            {
                "tag": "remote",
                "address": "https://1.1.1.1/dns-query",
                "strategy": "ipv4_only",
                "detour": "select"
            },
            {
                "tag": "local",
                "address": "https://223.5.5.5/dns-query",
                "strategy": "ipv4_only",
                "detour": "direct"
            },
            {
                "address": "rcode://success",
                "tag": "block"
            },
            {
                "tag": "dns_fakeip",
                "address": "fakeip"
            }
        ],
        "rules": [
            {
                "outbound": "any",
                "server": "local"
            },
            {
                "disable_cache": true,
                "geosite": "category-ads-all",
                "server": "block"
            },
            {
                "clash_mode": "Global",
                "server": "remote"
            },
            {
                "clash_mode": "Direct",
                "server": "local"
            },
            {
                "geosite": "cn",
                "server": "local"
            },
             {
               "query_type": [
                "A",
                "AAAA"
               ],
              "server": "dns_fakeip"
            }
          ],
           "fakeip": {
           "enabled": true,
           "inet4_range": "198.18.0.0/15",
           "inet6_range": "fc00::/18"
         },
          "independent_cache": true
        },
      "inbounds": [
    {
      "type": "tun",
      "inet4_address": "172.19.0.1/30",
      "inet6_address": "fdfe:dcba:9876::1/126",
      "auto_route": true,
      "strict_route": false,
      "sniff": true
    }
  ],
  "experimental": {
    "clash_api": {
      "external_controller": "127.0.0.1:9090",
      "external_ui": "ui",
      "external_ui_download_url": "",
      "external_ui_download_detour": "",
      "secret": "",
      "default_mode": "Rule",
      "store_mode": true,
      "store_selected": true,
      "store_fakeip": true
    }
  },
  "outbounds": [
    {
      "tag": "select",
      "type": "selector",
      "default": "auto",
      "outbounds": [
        "auto",
        "vless-sb",
        "vmess-sb",
        "hy2-sb",
        "tuic5-sb"
      ]
    },
    {
      "type": "vless",
      "tag": "vless-sb",
      "server": "103.77.241.24",
      "server_port": 14290,
      "uuid": "afdee8a5-111a-48d0-93b5-fe0fba27a87a",
      "flow": "xtls-rprx-vision",
      "tls": {
        "enabled": true,
        "server_name": "www.yahoo.com",
        "utls": {
          "enabled": true,
          "fingerprint": "chrome"
        },
      "reality": {
          "enabled": true,
          "public_key": "BenD9And5KEZEyvT5zBZUTxtV1zfzW4otlyz9o6CuA4",
          "short_id": "e11762b9"
        }
      }
    },
{
            "server": "www.wto.org",
            "server_port": 8443,
            "tag": "vmess-sb",
            "tls": {
                "enabled": true,
                "server_name": "corresponding-curious-stamps-oracle.trycloudflare.com",
                "insecure": false,
                "utls": {
                    "enabled": true,
                    "fingerprint": "chrome"
                }
            },
            "transport": {
                "headers": {
                    "Host": [
                        "corresponding-curious-stamps-oracle.trycloudflare.com"
                    ]
                },
                "path": "afdee8a5-111a-48d0-93b5-fe0fba27a87a-vm",
                "type": "ws"
            },
            "type": "vmess",
            "security": "auto",
            "uuid": "afdee8a5-111a-48d0-93b5-fe0fba27a87a"
        },
    {
        "type": "hysteria2",
        "tag": "hy2-sb",
        "server": "103.77.241.24",
        "server_port": 34252,
        "password": "afdee8a5-111a-48d0-93b5-fe0fba27a87a",
        "tls": {
            "enabled": true,
            "server_name": "www.bing.com",
            "insecure": true,
            "alpn": [
                "h3"
            ]
        }
    },
        {
            "type":"tuic",
            "tag": "tuic5-sb",
            "server": "103.77.241.24",
            "server_port": 58003,
            "uuid": "afdee8a5-111a-48d0-93b5-fe0fba27a87a",
            "password": "afdee8a5-111a-48d0-93b5-fe0fba27a87a",
            "congestion_control": "bbr",
            "udp_relay_mode": "native",
            "udp_over_stream": false,
            "zero_rtt_handshake": false,
            "heartbeat": "10s",
            "tls":{
                "enabled": true,
                "server_name": "www.bing.com",
                "insecure": true,
                "alpn": [
                    "h3"
                ]
            }
        },
    {
      "tag": "direct",
      "type": "direct"
    },
    {
      "tag": "block",
      "type": "block"
    },
    {
      "tag": "dns-out",
      "type": "dns"
    },
    {
      "tag": "auto",
      "type": "urltest",
      "outbounds": [
        "vless-sb",
        "vmess-sb",
        "hy2-sb",
        "tuic5-sb"
      ],
      "url": "https://cp.cloudflare.com/generate_204",
      "interval": "1m",
      "tolerance": 50,
      "interrupt_exist_connections": false
    }
  ],
  "route": {
      "geoip": {
      "download_url": "https://github.com/soffchen/sing-geoip/releases/latest/download/geoip.db",
      "download_detour": "select"
    },
    "geosite": {
      "download_url": "https://github.com/soffchen/sing-geosite/releases/latest/download/geosite.db",
      "download_detour": "select"
    },
    "auto_detect_interface": true,
    "rules": [
      {
        "geosite": "category-ads-all",
        "outbound": "block"
      },
      {
        "outbound": "dns-out",
        "protocol": "dns"
      },
      {
        "clash_mode": "Direct",
        "outbound": "direct"
      },
      {
        "clash_mode": "Global",
        "outbound": "select"
      },
      {
        "geosite": "cn",
        "geoip": [
          "cn",
          "private"
        ],
        "outbound": "direct"
      },
      {
        "geosite": "geolocation-!cn",
        "outbound": "select"
      }
    ]
  },
    "ntp": {
    "enabled": true,
    "server": "time.apple.com",
    "server_port": 123,
    "interval": "30m",
    "detour": "direct"
  }
}
